FifoCorrecto/FifoPushPop.vcd
$date
	Mon Jul  5 15:29:19 2021
$end
$version
	Icarus Verilog
$end
$timescale
	1s
$end
$scope module BUF $end
$var wire 1 ! A $end
$var wire 1 " Y $end
$upscope $end
$scope module Banco_Fifo $end
$var wire 1 # wr_enable $end
$var wire 1 $ reset $end
$var wire 1 % rd_enable $end
$var wire 1 & push $end
$var wire 1 ' pop $end
$var wire 1 ( clk $end
$var wire 10 ) FIFO_data_out [9:0] $end
$var wire 10 * FIFO_data_in [9:0] $end
$scope module u_fifo $end
$var wire 1 + error $end
$var wire 1 $ reset $end
$var wire 1 & push $end
$var wire 1 ' pop $end
$var wire 10 , data_in [9:0] $end
$var wire 1 ( clk $end
$var wire 10 - FIFO_data_out [9:0] $end
$var reg 1 . almost_empty_fifo $end
$var reg 1 / almost_full_fifo $end
$var reg 9 0 cnt [8:0] $end
$var reg 1 1 empty_fifo $end
$var reg 1 2 full_fifo $end
$var reg 1 % rd_enable $end
$var reg 1 # wr_enable $end
$scope module mem $end
$var wire 1 % rd_enable $end
$var wire 1 # wr_enable $end
$var wire 1 $ reset $end
$var wire 1 ( clk $end
$var wire 10 3 FIFO_data_in [9:0] $end
$var reg 10 4 FIFO_data_out [9:0] $end
$var reg 3 5 rd_ptr [2:0] $end
$var reg 3 6 wr_ptr [2:0] $end
$var integer 32 7 i [31:0] $end
$upscope $end
$upscope $end
$scope module u_probador_fifos $end
$var wire 10 8 FIFO_data_out [9:0] $end
$var wire 1 % rd_enable $end
$var wire 1 # wr_enable $end
$var reg 10 9 FIFO_data_in [9:0] $end
$var reg 1 ( clk $end
$var reg 1 ' pop $end
$var reg 1 & push $end
$var reg 1 $ reset $end
$upscope $end
$upscope $end
$scope module DFF $end
$var wire 1 : C $end
$var wire 1 ; D $end
$var reg 1 < Q $end
$upscope $end
$scope module DFFSR $end
$var wire 1 = C $end
$var wire 1 > D $end
$var wire 1 ? R $end
$var wire 1 @ S $end
$var reg 1 A Q $end
$upscope $end
$scope module NAND $end
$var wire 1 B A $end
$var wire 1 C B $end
$var wire 1 D Y $end
$upscope $end
$scope module NOR $end
$var wire 1 E A $end
$var wire 1 F B $end
$var wire 1 G Y $end
$upscope $end
$scope module NOT $end
$var wire 1 H A $end
$var wire 1 I Y $end
$upscope $end
$enddefinitions $end
#0
$dumpvars
zI
zH
xG
zF
zE
xD
zC
zB
xA
z@
z?
z>
z=
x<
z;
z:
b0 9
b0 8
b1000 7
b0 6
b0 5
b0 4
b0 3
02
11
b0 0
0/
0.
b0 -
b0 ,
z+
b0 *
b0 )
1(
x'
1&
0%
1$
0#
z"
z!
$end
#1
0(
#2
01
b10010000 *
b10010000 ,
b10010000 3
b10010000 9
0$
b1000 7
1(
#3
0(
#4
b10010001 *
b10010001 ,
b10010001 3
b10010001 9
1#
1(
#5
0(
#6
1.
b1 0
b1 6
b10010010 *
b10010010 ,
b10010010 3
b10010010 9
1(
#7
0(
#8
0.
b10010011 *
b10010011 ,
b10010011 3
b10010011 9
b10 6
b10 0
1(
#9
0(
#10
b11 0
b11 6
1'
b10010100 *
b10010100 ,
b10010100 3
b10010100 9
1(
#11
0(
#12
b100 6
1%
b100 0
1(
#13
0(
#14
b1 5
b101 6
b10010001 )
b10010001 -
b10010001 4
b10010001 8
1(
#15
0(
#16
b110 6
b10 5
b10010010 )
b10010010 -
b10010010 4
b10010010 8
1(
#17
0(
#18
b11 5
b111 6
b10010011 )
b10010011 -
b10010011 4
b10010011 8
1(
#19
0(
#20
b0 6
b100 5
b10010100 )
b10010100 -
b10010100 4
b10010100 8
1(
#21
0(
#22
b101 5
b1 6
b10010100 )
b10010100 -
b10010100 4
b10010100 8
1(
#23
0(
#24
b10 6
b110 5
b10010100 )
b10010100 -
b10010100 4
b10010100 8
1(
#25
0(
#26
b111 5
b11 6
b10010100 )
b10010100 -
b10010100 4
b10010100 8
1(
