Final/completo.vcd
$date
	Thu Jul 15 10:51:41 2021
$end
$version
	Icarus Verilog
$end
$timescale
	1s
$end
$scope module banco_modulocompleto $end
$var wire 1 ! IDLE $end
$var wire 4 " sig_estado [3:0] $end
$var wire 1 # reset $end
$var wire 1 $ req $end
$var wire 1 % push3 $end
$var wire 1 & push2 $end
$var wire 1 ' push1 $end
$var wire 1 ( push0 $end
$var wire 1 ) pop7 $end
$var wire 1 * pop6 $end
$var wire 1 + pop5 $end
$var wire 1 , pop4 $end
$var wire 1 - init $end
$var wire 2 . idx [1:0] $end
$var wire 4 / estado_actual [3:0] $end
$var wire 1 0 clk $end
$var wire 3 1 bajo [2:0] $end
$var wire 3 2 alto [2:0] $end
$var wire 10 3 FIFO_data_out7 [9:0] $end
$var wire 10 4 FIFO_data_out6 [9:0] $end
$var wire 10 5 FIFO_data_out5 [9:0] $end
$var wire 10 6 FIFO_data_out4 [9:0] $end
$var wire 10 7 FIFO_data_in3 [9:0] $end
$var wire 10 8 FIFO_data_in2 [9:0] $end
$var wire 10 9 FIFO_data_in1 [9:0] $end
$var wire 10 : FIFO_data_in0 [9:0] $end
$scope module modulo $end
$var wire 1 ! IDLE $end
$var wire 1 ; valid_contador $end
$var wire 4 < sig_estado [3:0] $end
$var wire 1 # reset $end
$var wire 1 $ req $end
$var wire 1 % push3 $end
$var wire 1 & push2 $end
$var wire 1 ' push1 $end
$var wire 1 ( push0 $end
$var wire 1 ) pop7 $end
$var wire 1 * pop6 $end
$var wire 1 + pop5 $end
$var wire 1 , pop4 $end
$var wire 1 - init $end
$var wire 2 = idx [1:0] $end
$var wire 4 > estado_actual [3:0] $end
$var wire 8 ? empty_fifos [7:0] $end
$var wire 5 @ contador_out [4:0] $end
$var wire 1 0 clk $end
$var wire 3 A bajo_out [2:0] $end
$var wire 3 B bajo [2:0] $end
$var wire 3 C alto_out [2:0] $end
$var wire 3 D alto [2:0] $end
$var wire 1 E active_out $end
$var wire 10 F FIFO_data_out7 [9:0] $end
$var wire 10 G FIFO_data_out6 [9:0] $end
$var wire 10 H FIFO_data_out5 [9:0] $end
$var wire 10 I FIFO_data_out4 [9:0] $end
$var wire 10 J FIFO_data_in3 [9:0] $end
$var wire 10 K FIFO_data_in2 [9:0] $end
$var wire 10 L FIFO_data_in1 [9:0] $end
$var wire 10 M FIFO_data_in0 [9:0] $end
$scope module conexion_final $end
$var wire 1 ! IDLE $end
$var wire 1 ; valid_contador $end
$var wire 2 N select [1:0] $end
$var wire 1 # reset $end
$var wire 1 $ req $end
$var wire 1 O push_F3 $end
$var wire 1 P push_F2 $end
$var wire 1 Q push_F1 $end
$var wire 1 R push_F0 $end
$var wire 1 % push3 $end
$var wire 1 & push2 $end
$var wire 1 ' push1 $end
$var wire 1 ( push0 $end
$var wire 1 S pop_F3 $end
$var wire 1 T pop_F2 $end
$var wire 1 U pop_F1 $end
$var wire 1 V pop_F0 $end
$var wire 1 ) pop7 $end
$var wire 1 * pop6 $end
$var wire 1 + pop5 $end
$var wire 1 , pop4 $end
$var wire 10 W out_mux [9:0] $end
$var wire 2 X idx [1:0] $end
$var wire 1 Y empty_P7 $end
$var wire 1 Z empty_P6 $end
$var wire 1 [ empty_P5 $end
$var wire 1 \ empty_P4 $end
$var wire 1 ] empty_P3 $end
$var wire 1 ^ empty_P2 $end
$var wire 1 _ empty_P1 $end
$var wire 1 ` empty_P0 $end
$var wire 5 a contador_out [4:0] $end
$var wire 1 0 clk $end
$var wire 3 b bajo [2:0] $end
$var wire 3 c alto [2:0] $end
$var wire 1 d almost_full_P3 $end
$var wire 1 e almost_full_P2 $end
$var wire 1 f almost_full_P1 $end
$var wire 1 g almost_full_P0 $end
$var wire 10 h FIFO_data_out7 [9:0] $end
$var wire 10 i FIFO_data_out6 [9:0] $end
$var wire 10 j FIFO_data_out5 [9:0] $end
$var wire 10 k FIFO_data_out4 [9:0] $end
$var wire 10 l FIFO_data_out3 [9:0] $end
$var wire 10 m FIFO_data_out2 [9:0] $end
$var wire 10 n FIFO_data_out1 [9:0] $end
$var wire 10 o FIFO_data_out0 [9:0] $end
$var wire 10 p FIFO_data_in7 [9:0] $end
$var wire 10 q FIFO_data_in6 [9:0] $end
$var wire 10 r FIFO_data_in5 [9:0] $end
$var wire 10 s FIFO_data_in4 [9:0] $end
$var wire 10 t FIFO_data_in3 [9:0] $end
$var wire 10 u FIFO_data_in2 [9:0] $end
$var wire 10 v FIFO_data_in1 [9:0] $end
$var wire 10 w FIFO_data_in0 [9:0] $end
$var reg 8 x empty_fifos [7:0] $end
$scope module Arbitro2 $end
$var wire 1 y empty_P4 $end
$var wire 1 z empty_P5 $end
$var wire 1 { empty_P6 $end
$var wire 1 | empty_P7 $end
$var wire 1 # reset $end
$var wire 1 ] empty_P3 $end
$var wire 1 ^ empty_P2 $end
$var wire 1 _ empty_P1 $end
$var wire 1 ` empty_P0 $end
$var wire 1 0 clk $end
$var wire 1 d almost_full_P3 $end
$var wire 1 e almost_full_P2 $end
$var wire 1 f almost_full_P1 $end
$var wire 1 g almost_full_P0 $end
$var reg 1 V pop_F0 $end
$var reg 1 U pop_F1 $end
$var reg 1 T pop_F2 $end
$var reg 1 S pop_F3 $end
$var reg 1 R push_F0 $end
$var reg 1 Q push_F1 $end
$var reg 1 P push_F2 $end
$var reg 1 O push_F3 $end
$var reg 2 } select [1:0] $end
$upscope $end
$scope module contadormodulo $end
$var wire 1 ! IDLE $end
$var wire 1 # reset $end
$var wire 1 $ req $end
$var wire 2 ~ idx [1:0] $end
$var wire 10 !" data_in_3 [9:0] $end
$var wire 10 "" data_in_2 [9:0] $end
$var wire 10 #" data_in_1 [9:0] $end
$var wire 10 $" data_in_0 [9:0] $end
$var wire 1 0 clk $end
$var reg 10 %" contador_fifo0 [9:0] $end
$var reg 10 &" contador_fifo1 [9:0] $end
$var reg 10 '" contador_fifo2 [9:0] $end
$var reg 10 (" contador_fifo3 [9:0] $end
$var reg 5 )" contador_out [4:0] $end
$var reg 10 *" data_ant_0 [9:0] $end
$var reg 10 +" data_ant_1 [9:0] $end
$var reg 10 ," data_ant_2 [9:0] $end
$var reg 10 -" data_ant_3 [9:0] $end
$var reg 10 ." data_vacio [9:0] $end
$var reg 1 ; valid_contador $end
$upscope $end
$scope module demux $end
$var wire 2 /" select [1:0] $end
$var wire 1 # reset $end
$var wire 10 0" in_demux [9:0] $end
$var wire 1 0 clk $end
$var reg 10 1" out_0 [9:0] $end
$var reg 10 2" out_1 [9:0] $end
$var reg 10 3" out_2 [9:0] $end
$var reg 10 4" out_3 [9:0] $end
$upscope $end
$scope module fifo0 $end
$var wire 1 5" error $end
$var wire 1 V pop $end
$var wire 1 # reset $end
$var wire 1 ( push $end
$var wire 1 0 clk $end
$var wire 3 6" bajo [2:0] $end
$var wire 3 7" alto [2:0] $end
$var wire 10 8" FIFO_data_out [9:0] $end
$var wire 10 9" FIFO_data_in [9:0] $end
$var reg 1 :" almost_empty_fifo $end
$var reg 1 ;" almost_full_fifo $end
$var reg 3 <" cnt [2:0] $end
$var reg 1 ` empty_fifo $end
$var reg 1 =" full_fifo $end
$var reg 1 >" rd_enable $end
$var reg 1 ?" wr_enable $end
$scope module mem $end
$var wire 1 >" rdmem_enable $end
$var wire 1 ?" wrmem_enable $end
$var wire 1 # reset $end
$var wire 10 @" memo_data_in [9:0] $end
$var wire 1 0 clk $end
$var reg 10 A" memo_data_out [9:0] $end
$var reg 3 B" rd_ptr [2:0] $end
$var reg 3 C" wr_ptr [2:0] $end
$var integer 32 D" i [31:0] $end
$upscope $end
$upscope $end
$scope module fifo1 $end
$var wire 1 E" error $end
$var wire 1 U pop $end
$var wire 1 # reset $end
$var wire 1 ' push $end
$var wire 1 0 clk $end
$var wire 3 F" bajo [2:0] $end
$var wire 3 G" alto [2:0] $end
$var wire 10 H" FIFO_data_out [9:0] $end
$var wire 10 I" FIFO_data_in [9:0] $end
$var reg 1 J" almost_empty_fifo $end
$var reg 1 K" almost_full_fifo $end
$var reg 3 L" cnt [2:0] $end
$var reg 1 _ empty_fifo $end
$var reg 1 M" full_fifo $end
$var reg 1 N" rd_enable $end
$var reg 1 O" wr_enable $end
$scope module mem $end
$var wire 1 N" rdmem_enable $end
$var wire 1 O" wrmem_enable $end
$var wire 1 # reset $end
$var wire 10 P" memo_data_in [9:0] $end
$var wire 1 0 clk $end
$var reg 10 Q" memo_data_out [9:0] $end
$var reg 3 R" rd_ptr [2:0] $end
$var reg 3 S" wr_ptr [2:0] $end
$var integer 32 T" i [31:0] $end
$upscope $end
$upscope $end
$scope module fifo2 $end
$var wire 1 U" error $end
$var wire 1 T pop $end
$var wire 1 # reset $end
$var wire 1 & push $end
$var wire 1 0 clk $end
$var wire 3 V" bajo [2:0] $end
$var wire 3 W" alto [2:0] $end
$var wire 10 X" FIFO_data_out [9:0] $end
$var wire 10 Y" FIFO_data_in [9:0] $end
$var reg 1 Z" almost_empty_fifo $end
$var reg 1 [" almost_full_fifo $end
$var reg 3 \" cnt [2:0] $end
$var reg 1 ^ empty_fifo $end
$var reg 1 ]" full_fifo $end
$var reg 1 ^" rd_enable $end
$var reg 1 _" wr_enable $end
$scope module mem $end
$var wire 1 ^" rdmem_enable $end
$var wire 1 _" wrmem_enable $end
$var wire 1 # reset $end
$var wire 10 `" memo_data_in [9:0] $end
$var wire 1 0 clk $end
$var reg 10 a" memo_data_out [9:0] $end
$var reg 3 b" rd_ptr [2:0] $end
$var reg 3 c" wr_ptr [2:0] $end
$var integer 32 d" i [31:0] $end
$upscope $end
$upscope $end
$scope module fifo3 $end
$var wire 1 e" error $end
$var wire 1 S pop $end
$var wire 1 # reset $end
$var wire 1 % push $end
$var wire 1 0 clk $end
$var wire 3 f" bajo [2:0] $end
$var wire 3 g" alto [2:0] $end
$var wire 10 h" FIFO_data_out [9:0] $end
$var wire 10 i" FIFO_data_in [9:0] $end
$var reg 1 j" almost_empty_fifo $end
$var reg 1 k" almost_full_fifo $end
$var reg 3 l" cnt [2:0] $end
$var reg 1 ] empty_fifo $end
$var reg 1 m" full_fifo $end
$var reg 1 n" rd_enable $end
$var reg 1 o" wr_enable $end
$scope module mem $end
$var wire 1 n" rdmem_enable $end
$var wire 1 o" wrmem_enable $end
$var wire 1 # reset $end
$var wire 10 p" memo_data_in [9:0] $end
$var wire 1 0 clk $end
$var reg 10 q" memo_data_out [9:0] $end
$var reg 3 r" rd_ptr [2:0] $end
$var reg 3 s" wr_ptr [2:0] $end
$var integer 32 t" i [31:0] $end
$upscope $end
$upscope $end
$scope module fifo4 $end
$var wire 10 u" FIFO_data_in [9:0] $end
$var wire 1 v" error $end
$var wire 1 R push $end
$var wire 1 # reset $end
$var wire 1 , pop $end
$var wire 1 0 clk $end
$var wire 3 w" bajo [2:0] $end
$var wire 3 x" alto [2:0] $end
$var wire 10 y" FIFO_data_out [9:0] $end
$var reg 1 z" almost_empty_fifo $end
$var reg 1 g almost_full_fifo $end
$var reg 3 {" cnt [2:0] $end
$var reg 1 \ empty_fifo $end
$var reg 1 |" full_fifo $end
$var reg 1 }" rd_enable $end
$var reg 1 ~" wr_enable $end
$scope module mem $end
$var wire 10 !# memo_data_in [9:0] $end
$var wire 1 }" rdmem_enable $end
$var wire 1 ~" wrmem_enable $end
$var wire 1 # reset $end
$var wire 1 0 clk $end
$var reg 10 "# memo_data_out [9:0] $end
$var reg 3 ## rd_ptr [2:0] $end
$var reg 3 $# wr_ptr [2:0] $end
$var integer 32 %# i [31:0] $end
$upscope $end
$upscope $end
$scope module fifo5 $end
$var wire 10 &# FIFO_data_in [9:0] $end
$var wire 1 '# error $end
$var wire 1 Q push $end
$var wire 1 # reset $end
$var wire 1 + pop $end
$var wire 1 0 clk $end
$var wire 3 (# bajo [2:0] $end
$var wire 3 )# alto [2:0] $end
$var wire 10 *# FIFO_data_out [9:0] $end
$var reg 1 +# almost_empty_fifo $end
$var reg 1 f almost_full_fifo $end
$var reg 3 ,# cnt [2:0] $end
$var reg 1 [ empty_fifo $end
$var reg 1 -# full_fifo $end
$var reg 1 .# rd_enable $end
$var reg 1 /# wr_enable $end
$scope module mem $end
$var wire 10 0# memo_data_in [9:0] $end
$var wire 1 .# rdmem_enable $end
$var wire 1 /# wrmem_enable $end
$var wire 1 # reset $end
$var wire 1 0 clk $end
$var reg 10 1# memo_data_out [9:0] $end
$var reg 3 2# rd_ptr [2:0] $end
$var reg 3 3# wr_ptr [2:0] $end
$var integer 32 4# i [31:0] $end
$upscope $end
$upscope $end
$scope module fifo6 $end
$var wire 10 5# FIFO_data_in [9:0] $end
$var wire 1 6# error $end
$var wire 1 P push $end
$var wire 1 # reset $end
$var wire 1 * pop $end
$var wire 1 0 clk $end
$var wire 3 7# bajo [2:0] $end
$var wire 3 8# alto [2:0] $end
$var wire 10 9# FIFO_data_out [9:0] $end
$var reg 1 :# almost_empty_fifo $end
$var reg 1 e almost_full_fifo $end
$var reg 3 ;# cnt [2:0] $end
$var reg 1 Z empty_fifo $end
$var reg 1 <# full_fifo $end
$var reg 1 =# rd_enable $end
$var reg 1 ># wr_enable $end
$scope module mem $end
$var wire 10 ?# memo_data_in [9:0] $end
$var wire 1 =# rdmem_enable $end
$var wire 1 ># wrmem_enable $end
$var wire 1 # reset $end
$var wire 1 0 clk $end
$var reg 10 @# memo_data_out [9:0] $end
$var reg 3 A# rd_ptr [2:0] $end
$var reg 3 B# wr_ptr [2:0] $end
$var integer 32 C# i [31:0] $end
$upscope $end
$upscope $end
$scope module fifo7 $end
$var wire 10 D# FIFO_data_in [9:0] $end
$var wire 1 E# error $end
$var wire 1 O push $end
$var wire 1 # reset $end
$var wire 1 ) pop $end
$var wire 1 0 clk $end
$var wire 3 F# bajo [2:0] $end
$var wire 3 G# alto [2:0] $end
$var wire 10 H# FIFO_data_out [9:0] $end
$var reg 1 I# almost_empty_fifo $end
$var reg 1 d almost_full_fifo $end
$var reg 3 J# cnt [2:0] $end
$var reg 1 Y empty_fifo $end
$var reg 1 K# full_fifo $end
$var reg 1 L# rd_enable $end
$var reg 1 M# wr_enable $end
$scope module mem $end
$var wire 10 N# memo_data_in [9:0] $end
$var wire 1 L# rdmem_enable $end
$var wire 1 M# wrmem_enable $end
$var wire 1 # reset $end
$var wire 1 0 clk $end
$var reg 10 O# memo_data_out [9:0] $end
$var reg 3 P# rd_ptr [2:0] $end
$var reg 3 Q# wr_ptr [2:0] $end
$var integer 32 R# i [31:0] $end
$upscope $end
$upscope $end
$scope module mux $end
$var wire 10 S# in_0 [9:0] $end
$var wire 10 T# in_1 [9:0] $end
$var wire 10 U# in_2 [9:0] $end
$var wire 10 V# in_3 [9:0] $end
$var wire 2 W# select [1:0] $end
$var wire 1 # reset $end
$var wire 1 0 clk $end
$var reg 10 X# out_mux [9:0] $end
$upscope $end
$upscope $end
$scope module maquina $end
$var wire 8 Y# empty_fifos [7:0] $end
$var wire 1 # reset $end
$var wire 1 - init $end
$var wire 1 0 clk $end
$var wire 3 Z# bajo [2:0] $end
$var wire 3 [# alto [2:0] $end
$var reg 8 \# FIFO_empties [7:0] $end
$var reg 1 E active_out $end
$var reg 3 ]# alto_out [2:0] $end
$var reg 3 ^# bajo_out [2:0] $end
$var reg 4 _# estado_actual [3:0] $end
$var reg 1 `# idle_out $end
$var reg 1 a# next_active $end
$var reg 8 b# next_alto [7:0] $end
$var reg 8 c# next_bajo [7:0] $end
$var reg 1 d# next_idle $end
$var reg 4 e# sig_estado [3:0] $end
$upscope $end
$upscope $end
$scope module probador_modulo $end
$var wire 10 f# FIFO_data_out4 [9:0] $end
$var wire 10 g# FIFO_data_out5 [9:0] $end
$var wire 10 h# FIFO_data_out6 [9:0] $end
$var wire 10 i# FIFO_data_out7 [9:0] $end
$var wire 5 j# contador_out [4:0] $end
$var wire 1 k# valid_contador $end
$var reg 10 l# FIFO_data_in0 [9:0] $end
$var reg 10 m# FIFO_data_in1 [9:0] $end
$var reg 10 n# FIFO_data_in2 [9:0] $end
$var reg 10 o# FIFO_data_in3 [9:0] $end
$var reg 1 p# IDLE $end
$var reg 3 q# alto [2:0] $end
$var reg 3 r# bajo [2:0] $end
$var reg 1 0 clk $end
$var reg 2 s# idx [1:0] $end
$var reg 1 - init $end
$var reg 1 , pop4 $end
$var reg 1 + pop5 $end
$var reg 1 * pop6 $end
$var reg 1 ) pop7 $end
$var reg 1 ( push0 $end
$var reg 1 ' push1 $end
$var reg 1 & push2 $end
$var reg 1 % push3 $end
$var reg 1 $ req $end
$var reg 1 # reset $end
$upscope $end
$upscope $end
$enddefinitions $end
#0
$dumpvars
bx s#
b0 r#
b100 q#
xp#
b0 o#
b0 n#
b0 m#
b0 l#
zk#
bz j#
b0 i#
b0 h#
b0 g#
b0 f#
b0 e#
xd#
bx c#
bx b#
xa#
0`#
b0 _#
b0 ^#
b0 ]#
b11111111 \#
b100 [#
b0 Z#
b11111111 Y#
b0 X#
b0 W#
b0 V#
b0 U#
b0 T#
b0 S#
b1000 R#
b0 Q#
b0 P#
b0 O#
b0 N#
0M#
0L#
0K#
b0 J#
1I#
b0 H#
b0 G#
b0 F#
zE#
b0 D#
b1000 C#
b0 B#
b0 A#
b0 @#
b0 ?#
0>#
0=#
0<#
b0 ;#
1:#
b0 9#
b0 8#
b0 7#
z6#
b0 5#
b1000 4#
b0 3#
b0 2#
b0 1#
b0 0#
0/#
0.#
0-#
b0 ,#
1+#
b0 *#
b0 )#
b0 (#
z'#
b0 &#
b1000 %#
b0 $#
b0 ##
b0 "#
b0 !#
0~"
0}"
0|"
b0 {"
1z"
b0 y"
b0 x"
b0 w"
zv"
b0 u"
b1000 t"
b0 s"
b0 r"
b0 q"
b0 p"
0o"
0n"
0m"
b0 l"
1k"
1j"
b0 i"
b0 h"
b0 g"
b0 f"
ze"
b1000 d"
b0 c"
b0 b"
b0 a"
b0 `"
0_"
0^"
0]"
b0 \"
1["
1Z"
b0 Y"
b0 X"
b0 W"
b0 V"
zU"
b1000 T"
b0 S"
b0 R"
b0 Q"
b0 P"
0O"
0N"
0M"
b0 L"
1K"
1J"
b0 I"
b0 H"
b0 G"
b0 F"
zE"
b1000 D"
b0 C"
b0 B"
b0 A"
b0 @"
0?"
0>"
0="
b0 <"
1;"
1:"
b0 9"
b0 8"
b0 7"
b0 6"
z5"
b0 4"
b0 3"
b0 2"
b0 1"
b0 0"
b0 /"
bx ."
b0 -"
b0 ,"
b0 +"
b0 *"
b0 )"
b0 ("
b0 '"
b0 &"
b0 %"
b0 $"
b0 #"
b0 ""
b0 !"
bx ~
b0 }
z|
z{
zz
zy
b11111111 x
b0 w
b0 v
b0 u
b0 t
b0 s
b0 r
b0 q
b0 p
b0 o
b0 n
b0 m
b0 l
b0 k
b0 j
b0 i
b0 h
1g
1f
1e
1d
b0 c
b0 b
b0 a
1`
1_
1^
1]
1\
1[
1Z
1Y
bx X
b0 W
0V
0U
0T
0S
0R
0Q
0P
0O
b0 N
b0 M
b0 L
b0 K
b0 J
b0 I
b0 H
b0 G
b0 F
0E
b100 D
b0 C
b0 B
b0 A
b0 @
b11111111 ?
b0 >
bx =
b0 <
0;
b0 :
b0 9
b0 8
b0 7
b0 6
b0 5
b0 4
b0 3
b100 2
b0 1
10
b0 /
bx .
0-
x,
x+
x*
x)
x(
x'
x&
x%
x$
1#
b0 "
x!
$end
#1
00
#2
b1 "
b1 <
b1 e#
1M#
1>#
1/#
1~"
1-
0#
1O
1P
1Q
1R
b1000 R#
b1000 C#
b1000 4#
b1000 %#
b1000 t"
b1000 d"
b1000 T"
b1000 D"
10
#3
00
#4
0;"
0:"
0K"
0J"
0["
0Z"
0k"
0j"
0g
0z"
0f
0+#
0e
0:#
0d
0I#
b1 c#
b10 b#
b1 A
b1 b
b1 6"
b1 F"
b1 V"
b1 f"
b1 w"
b1 (#
b1 7#
b1 F#
b1 ^#
b10 C
b10 c
b10 7"
b10 G"
b10 W"
b10 g"
b10 x"
b10 )#
b10 8#
b10 G#
b10 ]#
b1 $#
b1 3#
b1 B#
b1 Q#
b0 ."
b1 /
b1 >
b1 _#
b10 2
b10 D
b10 [#
b10 q#
b1 1
b1 B
b1 Z#
b1 r#
10
#5
00
#6
b10 Q#
b10 B#
b10 3#
b10 $#
b11 c#
b101 b#
b11 A
b11 b
b11 6"
b11 F"
b11 V"
b11 f"
b11 w"
b11 (#
b11 7#
b11 F#
b11 ^#
b101 C
b101 c
b101 7"
b101 G"
b101 W"
b101 g"
b101 x"
b101 )#
b101 8#
b101 G#
b101 ]#
b101 2
b101 D
b101 [#
b101 q#
b11 1
b11 B
b11 Z#
b11 r#
10
#7
00
#8
1?"
b10 "
b10 <
b10 e#
b11 $#
b11 3#
b11 B#
b11 Q#
0%
0&
0'
1(
0-
10
#9
00
#10
1`#
b1 :
b1 M
b1 w
b1 9"
b1 @"
b1 l#
b10 /
b10 >
b10 _#
b100 Q#
b100 B#
b100 3#
b100 $#
b1 C"
10
#11
00
#12
b11 "
b11 <
b11 e#
b11111110 \#
b11111110 ?
b11111110 x
b11111110 Y#
0`
b10 C"
b1 <"
b101 $#
b101 3#
b101 B#
b101 Q#
10
#13
00
#14
1>"
0`#
b11 /
b11 >
b11 _#
1V
b110 Q#
b110 B#
b110 3#
b110 $#
b10 <"
b11 C"
10
#15
00
#16
b100 C"
b1 B"
b111 $#
b111 3#
b111 B#
b111 Q#
10
#17
00
#18
b1 s
b1 1"
b1 u"
b1 !#
b1 W
b1 0"
b1 X#
b0 Q#
b0 B#
b0 3#
b0 $#
b10 B"
b1 o
b1 8"
b1 A"
b1 S#
b101 C"
10
#19
00
#20
b11101110 \#
b11101110 ?
b11101110 x
b11101110 Y#
0\
b110 C"
b11 B"
b1 o
b1 8"
b1 A"
b1 S#
b1 $#
b1 {"
b1 3#
b1 B#
b1 Q#
10
#21
00
#22
0?"
0(
b10 Q#
b10 B#
b10 3#
b10 {"
b10 $#
b100 B"
b1 o
b1 8"
b1 A"
b1 S#
b111 C"
10
#23
00
#24
1z"
b101 B"
b1 o
b1 8"
b1 A"
b1 S#
b1 <"
b11 $#
b11 {"
b11 3#
b11 B#
b11 Q#
10
#25
00
#26
b11101111 \#
b11101111 ?
b11101111 x
b11101111 Y#
0z"
1`
b100 Q#
b100 B#
b100 3#
b100 {"
b100 $#
b0 <"
b110 B"
b1 o
b1 8"
b1 A"
b1 S#
10
#27
00
#28
0~"
0R
1g
1}"
1?"
b111 B"
b1 o
b1 8"
b1 A"
b1 S#
b101 $#
b101 {"
b101 3#
b101 B#
b101 Q#
1(
1,
10
#29
00
#30
1~"
1R
b0 s
b0 1"
b0 u"
b0 !#
0>"
0g
b0 W
b0 0"
b0 X#
b100000001 :
b100000001 M
b100000001 w
b100000001 9"
b100000001 @"
b100000001 l#
0V
b110 Q#
b110 B#
b110 3#
b100 {"
b1 ##
b1 6
b1 I
b1 k
b1 $"
b1 y"
b1 "#
b1 f#
b0 B"
b0 o
b0 8"
b0 A"
b0 S#
b0 C"
10
#31
00
#32
b11101110 \#
b11101110 ?
b11101110 x
b11101110 Y#
0`
b1 C"
b1 <"
b110 $#
b10 ##
b1 6
b1 I
b1 k
b1 $"
b1 y"
b1 "#
b1 f#
b111 3#
b111 B#
b111 Q#
b1 %"
b1 *"
10
#33
00
#34
1>"
b10 %"
1V
b0 Q#
b0 B#
b0 3#
b11 ##
b1 6
b1 I
b1 k
b1 $"
b1 y"
b1 "#
b1 f#
b111 $#
b10 <"
b10 C"
10
#35
00
#36
b100000001 r
b100000001 2"
b100000001 &#
b100000001 0#
b0 s
b0 1"
b0 u"
b0 !#
b1 /"
b100000001 W
b100000001 0"
b100000001 X#
b11 C"
b1 B"
b100000001 o
b100000001 8"
b100000001 A"
b100000001 S#
b0 $#
b100 ##
b1 6
b1 I
b1 k
b1 $"
b1 y"
b1 "#
b1 f#
b1 3#
b1 B#
b1 Q#
b11 %"
10
#37
00
#38
b11001110 \#
b11001110 ?
b11001110 x
b11001110 Y#
0[
b100 %"
b10 Q#
b10 B#
b1 ,#
b10 3#
b101 ##
b1 6
b1 I
b1 k
b1 $"
b1 y"
b1 "#
b1 f#
b1 $#
b10 B"
b100000001 o
b100000001 8"
b100000001 A"
b100000001 S#
b100 C"
10
#39
00
#40
0?"
b101 C"
b11 B"
b100000001 o
b100000001 8"
b100000001 A"
b100000001 S#
b10 $#
b110 ##
b0 6
b0 I
b0 k
b0 $"
b0 y"
b0 "#
b0 f#
b11 3#
b10 ,#
b11 B#
b11 Q#
b101 %"
0(
10
#41
00
#42
1+#
b100 Q#
b100 B#
b11 ,#
b100 3#
b111 ##
b11 $#
b1 <"
b100 B"
b100000001 o
b100000001 8"
b100000001 A"
b100000001 S#
10
#43
00
#44
b11001111 \#
b11001111 ?
b11001111 x
b11001111 Y#
1`
0+#
b101 B"
b100000001 o
b100000001 8"
b100000001 A"
b100000001 S#
b0 <"
b100 $#
b0 ##
b101 3#
b100 ,#
b101 B#
b101 Q#
10
#45
00
#46
0/#
0Q
b0 r
b0 2"
b0 &#
b0 0#
1f
b0 /"
b0 W
b0 0"
b0 X#
b110 Q#
b110 B#
b101 ,#
b110 3#
b1 ##
b101 $#
b110 B"
b0 o
b0 8"
b0 A"
b0 S#
10
#47
00
#48
0>"
b111 B"
b110 $#
b10 ##
b111 B#
b111 Q#
0V
10
#49
00
#50
1.#
0}"
1+
0,
b0 Q#
b0 B#
b11 ##
b111 $#
10
#51
00
#52
1/#
1Q
0f
b0 $#
b1 2#
b100 ,#
b1 B#
b1 Q#
10
#53
00
#54
b10 Q#
b10 B#
b10 2#
b100000001 5
b100000001 H
b100000001 j
b100000001 #"
b100000001 *#
b100000001 1#
b100000001 g#
b111 3#
b1 $#
10
#55
00
#56
b10 $#
b0 3#
b11 2#
b100000001 5
b100000001 H
b100000001 j
b100000001 #"
b100000001 *#
b100000001 1#
b100000001 g#
b11 B#
b11 Q#
b1 &"
b100000001 +"
10
#57
00
#58
b10 &"
b100 Q#
b100 B#
b100 2#
b100000001 5
b100000001 H
b100000001 j
b100000001 #"
b100000001 *#
b100000001 1#
b100000001 g#
b1 3#
b11 $#
10
#59
00
#60
b100 $#
b10 3#
b101 2#
b100000001 5
b100000001 H
b100000001 j
b100000001 #"
b100000001 *#
b100000001 1#
b100000001 g#
b101 B#
b101 Q#
b11 &"
10
#61
00
#62
1?"
1(
b100 &"
b110 Q#
b110 B#
b110 2#
b100000001 5
b100000001 H
b100000001 j
b100000001 #"
b100000001 *#
b100000001 1#
b100000001 g#
b11 3#
b101 $#
10
#63
00
#64
b11001110 \#
b11001110 ?
b11001110 x
b11001110 Y#
0`
b110 C"
b1 <"
b110 $#
b100 3#
b111 2#
b0 5
b0 H
b0 j
b0 #"
b0 *#
b0 1#
b0 g#
b111 B#
b111 Q#
b101 &"
b1000000001 :
b1000000001 M
b1000000001 w
b1000000001 9"
b1000000001 @"
b1000000001 l#
10
#65
00
#66
1>"
1V
b0 Q#
b0 B#
b0 2#
b101 3#
b111 $#
b10 <"
b111 C"
10
#67
00
#68
b0 C"
b0 B"
b0 $#
b110 3#
b1 2#
b1 B#
b1 Q#
10
#69
00
#70
b10 Q#
b10 B#
b10 2#
b111 3#
b1 $#
b1 B"
b1 C"
10
#71
00
#72
b10 C"
b10 B"
b10 $#
b0 3#
b11 2#
b11 B#
b11 Q#
10
#73
00
#74
b100 Q#
b100 B#
b100 2#
b1 3#
b11 $#
b11 B"
b11 C"
10
#75
00
#76
b100 C"
b100 B"
b100 $#
b10 3#
b101 2#
b101 B#
b101 Q#
10
#77
00
#78
b110 Q#
b110 B#
b110 2#
b11 3#
b101 $#
b101 B"
b101 C"
10
#79
00
#80
b100000001 r
b100000001 2"
b100000001 &#
b100000001 0#
b0 s
b0 1"
b0 u"
b0 !#
b1 /"
b100000001 W
b100000001 0"
b100000001 X#
b110 C"
b110 B"
b100000001 o
b100000001 8"
b100000001 A"
b100000001 S#
b110 $#
b100 3#
b111 2#
b111 B#
b111 Q#
10
#81
00
#82
b1000000001 q
b1000000001 3"
b1000000001 5#
b1000000001 ?#
b0 r
b0 2"
b0 &#
b0 0#
b10 /"
b1000000001 W
b1000000001 0"
b1000000001 X#
b0 Q#
b0 B#
b0 2#
b101 3#
b111 $#
b111 B"
b1000000001 o
b1000000001 8"
b1000000001 A"
b1000000001 S#
b111 C"
10
#83
00
#84
b10001110 \#
b10001110 ?
b10001110 x
b10001110 Y#
0Z
b0 C"
b0 B"
b1000000001 o
b1000000001 8"
b1000000001 A"
b1000000001 S#
b0 $#
b110 3#
b1 2#
b1 B#
b1 ;#
b1 Q#
10
#85
00
#86
b0 q
b0 3"
b0 5#
b0 ?#
b0 /"
b0 W
b0 0"
b0 X#
b10 Q#
b10 ;#
b10 B#
b10 2#
b111 3#
b1 $#
b1 B"
b0 o
b0 8"
b0 A"
b0 S#
b1 C"
10
#87
00
#88
b1000000001 q
b1000000001 3"
b1000000001 5#
b1000000001 ?#
b0 s
b0 1"
b0 u"
b0 !#
b10 /"
b1000000001 W
b1000000001 0"
b1000000001 X#
b10 C"
b10 B"
b1000000001 o
b1000000001 8"
b1000000001 A"
b1000000001 S#
b10 $#
b0 3#
b11 2#
b11 B#
b11 Q#
10
#89
00
#90
b0 q
b0 3"
b0 5#
b0 ?#
1:#
b0 /"
0?"
b0 W
b0 0"
b0 X#
0*
0(
b100 Q#
b11 ;#
b100 B#
b100 2#
b1 3#
b11 $#
b11 B"
b0 o
b0 8"
b0 A"
b0 S#
b11 C"
10
#91
00
