ModuloFinal/ResultadoFinal_v1.vcd
$date
	Sat Jul 24 01:44:41 2021
$end
$version
	Icarus Verilog
$end
$timescale
	1s
$end
$scope module BUF $end
$var wire 1 ! A $end
$var wire 1 " Y $end
$upscope $end
$scope module DFF $end
$var wire 1 # C $end
$var wire 1 $ D $end
$var reg 1 % Q $end
$upscope $end
$scope module DFFSR $end
$var wire 1 & C $end
$var wire 1 ' D $end
$var wire 1 ( R $end
$var wire 1 ) S $end
$var reg 1 * Q $end
$upscope $end
$scope module NAND $end
$var wire 1 + A $end
$var wire 1 , B $end
$var wire 1 - Y $end
$upscope $end
$scope module NOR $end
$var wire 1 . A $end
$var wire 1 / B $end
$var wire 1 0 Y $end
$upscope $end
$scope module NOT $end
$var wire 1 1 A $end
$var wire 1 2 Y $end
$upscope $end
$scope module banco_modulocompleto $end
$var wire 10 3 FIFO_data_out_synth4 [9:0] $end
$var wire 10 4 FIFO_data_out_synth5 [9:0] $end
$var wire 10 5 FIFO_data_out_synth6 [9:0] $end
$var wire 10 6 FIFO_data_out_synth7 [9:0] $end
$var wire 1 7 IDLE $end
$var wire 1 8 valid_contador $end
$var wire 1 9 reset $end
$var wire 1 : req $end
$var wire 1 ; push3 $end
$var wire 1 < push2 $end
$var wire 1 = push1 $end
$var wire 1 > push0 $end
$var wire 1 ? pop7 $end
$var wire 1 @ pop6 $end
$var wire 1 A pop5 $end
$var wire 1 B pop4 $end
$var wire 1 C init $end
$var wire 2 D idx [1:0] $end
$var wire 5 E contador_out [4:0] $end
$var wire 1 F clk $end
$var wire 3 G bajo [2:0] $end
$var wire 3 H alto [2:0] $end
$var wire 10 I FIFO_data_out7 [9:0] $end
$var wire 10 J FIFO_data_out6 [9:0] $end
$var wire 10 K FIFO_data_out5 [9:0] $end
$var wire 10 L FIFO_data_out4 [9:0] $end
$var wire 10 M FIFO_data_in3 [9:0] $end
$var wire 10 N FIFO_data_in2 [9:0] $end
$var wire 10 O FIFO_data_in1 [9:0] $end
$var wire 10 P FIFO_data_in0 [9:0] $end
$scope module modulo $end
$var wire 1 7 IDLE $end
$var wire 1 8 valid_contador $end
$var wire 1 9 reset $end
$var wire 1 : req $end
$var wire 1 ; push3 $end
$var wire 1 < push2 $end
$var wire 1 = push1 $end
$var wire 1 > push0 $end
$var wire 1 ? pop7 $end
$var wire 1 @ pop6 $end
$var wire 1 A pop5 $end
$var wire 1 B pop4 $end
$var wire 1 C init $end
$var wire 2 Q idx [1:0] $end
$var wire 8 R empty_fifos [7:0] $end
$var wire 5 S contador_out [4:0] $end
$var wire 1 F clk $end
$var wire 3 T bajo_out [2:0] $end
$var wire 3 U bajo [2:0] $end
$var wire 3 V alto_out [2:0] $end
$var wire 3 W alto [2:0] $end
$var wire 1 X active_out $end
$var wire 10 Y FIFO_data_out7 [9:0] $end
$var wire 10 Z FIFO_data_out6 [9:0] $end
$var wire 10 [ FIFO_data_out5 [9:0] $end
$var wire 10 \ FIFO_data_out4 [9:0] $end
$var wire 10 ] FIFO_data_in3 [9:0] $end
$var wire 10 ^ FIFO_data_in2 [9:0] $end
$var wire 10 _ FIFO_data_in1 [9:0] $end
$var wire 10 ` FIFO_data_in0 [9:0] $end
$scope module conexion_final $end
$var wire 1 7 IDLE $end
$var wire 1 8 valid_contador $end
$var wire 2 a select [1:0] $end
$var wire 1 9 reset $end
$var wire 1 : req $end
$var wire 1 b push_F3 $end
$var wire 1 c push_F2 $end
$var wire 1 d push_F1 $end
$var wire 1 e push_F0 $end
$var wire 1 ; push3 $end
$var wire 1 < push2 $end
$var wire 1 = push1 $end
$var wire 1 > push0 $end
$var wire 1 f pop_F3 $end
$var wire 1 g pop_F2 $end
$var wire 1 h pop_F1 $end
$var wire 1 i pop_F0 $end
$var wire 1 ? pop7 $end
$var wire 1 @ pop6 $end
$var wire 1 A pop5 $end
$var wire 1 B pop4 $end
$var wire 10 j out_mux [9:0] $end
$var wire 2 k idx [1:0] $end
$var wire 1 l empty_P7 $end
$var wire 1 m empty_P6 $end
$var wire 1 n empty_P5 $end
$var wire 1 o empty_P4 $end
$var wire 1 p empty_P3 $end
$var wire 1 q empty_P2 $end
$var wire 1 r empty_P1 $end
$var wire 1 s empty_P0 $end
$var wire 5 t contador_out [4:0] $end
$var wire 1 F clk $end
$var wire 3 u bajo [2:0] $end
$var wire 3 v alto [2:0] $end
$var wire 1 w almost_full_P3 $end
$var wire 1 x almost_full_P2 $end
$var wire 1 y almost_full_P1 $end
$var wire 1 z almost_full_P0 $end
$var wire 10 { FIFO_data_out7 [9:0] $end
$var wire 10 | FIFO_data_out6 [9:0] $end
$var wire 10 } FIFO_data_out5 [9:0] $end
$var wire 10 ~ FIFO_data_out4 [9:0] $end
$var wire 10 !" FIFO_data_out3 [9:0] $end
$var wire 10 "" FIFO_data_out2 [9:0] $end
$var wire 10 #" FIFO_data_out1 [9:0] $end
$var wire 10 $" FIFO_data_out0 [9:0] $end
$var wire 10 %" FIFO_data_in7 [9:0] $end
$var wire 10 &" FIFO_data_in6 [9:0] $end
$var wire 10 '" FIFO_data_in5 [9:0] $end
$var wire 10 (" FIFO_data_in4 [9:0] $end
$var wire 10 )" FIFO_data_in3 [9:0] $end
$var wire 10 *" FIFO_data_in2 [9:0] $end
$var wire 10 +" FIFO_data_in1 [9:0] $end
$var wire 10 ," FIFO_data_in0 [9:0] $end
$var reg 8 -" empty_fifos [7:0] $end
$scope module cont $end
$var wire 1 7 IDLE $end
$var wire 1 9 reset $end
$var wire 1 : req $end
$var wire 1 ? pop_F3 $end
$var wire 1 @ pop_F2 $end
$var wire 1 A pop_F1 $end
$var wire 1 B pop_F0 $end
$var wire 2 ." idx [1:0] $end
$var wire 1 l empty_P7 $end
$var wire 1 m empty_P6 $end
$var wire 1 n empty_P5 $end
$var wire 1 o empty_P4 $end
$var wire 1 F clk $end
$var reg 10 /" contador_fifo0 [9:0] $end
$var reg 10 0" contador_fifo1 [9:0] $end
$var reg 10 1" contador_fifo2 [9:0] $end
$var reg 10 2" contador_fifo3 [9:0] $end
$var reg 5 3" contador_out [4:0] $end
$var reg 1 8 valid_contador $end
$upscope $end
$scope module demux $end
$var wire 2 4" select [1:0] $end
$var wire 1 9 reset $end
$var wire 10 5" in_demux [9:0] $end
$var wire 1 F clk $end
$var reg 10 6" out_0 [9:0] $end
$var reg 10 7" out_1 [9:0] $end
$var reg 10 8" out_2 [9:0] $end
$var reg 10 9" out_3 [9:0] $end
$upscope $end
$scope module fifo0 $end
$var wire 1 9 reset $end
$var wire 1 > push $end
$var wire 1 i pop $end
$var wire 1 F clk $end
$var wire 3 :" bajo [2:0] $end
$var wire 3 ;" alto [2:0] $end
$var wire 10 <" FIFO_data_out [9:0] $end
$var wire 10 =" FIFO_data_in [9:0] $end
$var reg 1 >" almost_empty_fifo $end
$var reg 1 ?" almost_full_fifo $end
$var reg 3 @" cnt [2:0] $end
$var reg 1 s empty_fifo $end
$var reg 1 A" full_fifo $end
$var reg 1 B" rd_enable $end
$var reg 1 C" wr_enable $end
$scope module mem $end
$var wire 1 B" rdmem_enable $end
$var wire 1 C" wrmem_enable $end
$var wire 1 9 reset $end
$var wire 10 D" memo_data_in [9:0] $end
$var wire 1 F clk $end
$var reg 10 E" memo_data_out [9:0] $end
$var reg 3 F" rd_ptr [2:0] $end
$var reg 3 G" wr_ptr [2:0] $end
$var integer 32 H" i [31:0] $end
$upscope $end
$upscope $end
$scope module fifo1 $end
$var wire 1 9 reset $end
$var wire 1 = push $end
$var wire 1 h pop $end
$var wire 1 F clk $end
$var wire 3 I" bajo [2:0] $end
$var wire 3 J" alto [2:0] $end
$var wire 10 K" FIFO_data_out [9:0] $end
$var wire 10 L" FIFO_data_in [9:0] $end
$var reg 1 M" almost_empty_fifo $end
$var reg 1 N" almost_full_fifo $end
$var reg 3 O" cnt [2:0] $end
$var reg 1 r empty_fifo $end
$var reg 1 P" full_fifo $end
$var reg 1 Q" rd_enable $end
$var reg 1 R" wr_enable $end
$scope module mem $end
$var wire 1 Q" rdmem_enable $end
$var wire 1 R" wrmem_enable $end
$var wire 1 9 reset $end
$var wire 10 S" memo_data_in [9:0] $end
$var wire 1 F clk $end
$var reg 10 T" memo_data_out [9:0] $end
$var reg 3 U" rd_ptr [2:0] $end
$var reg 3 V" wr_ptr [2:0] $end
$var integer 32 W" i [31:0] $end
$upscope $end
$upscope $end
$scope module fifo2 $end
$var wire 1 9 reset $end
$var wire 1 < push $end
$var wire 1 g pop $end
$var wire 1 F clk $end
$var wire 3 X" bajo [2:0] $end
$var wire 3 Y" alto [2:0] $end
$var wire 10 Z" FIFO_data_out [9:0] $end
$var wire 10 [" FIFO_data_in [9:0] $end
$var reg 1 \" almost_empty_fifo $end
$var reg 1 ]" almost_full_fifo $end
$var reg 3 ^" cnt [2:0] $end
$var reg 1 q empty_fifo $end
$var reg 1 _" full_fifo $end
$var reg 1 `" rd_enable $end
$var reg 1 a" wr_enable $end
$scope module mem $end
$var wire 1 `" rdmem_enable $end
$var wire 1 a" wrmem_enable $end
$var wire 1 9 reset $end
$var wire 10 b" memo_data_in [9:0] $end
$var wire 1 F clk $end
$var reg 10 c" memo_data_out [9:0] $end
$var reg 3 d" rd_ptr [2:0] $end
$var reg 3 e" wr_ptr [2:0] $end
$var integer 32 f" i [31:0] $end
$upscope $end
$upscope $end
$scope module fifo3 $end
$var wire 1 9 reset $end
$var wire 1 ; push $end
$var wire 1 f pop $end
$var wire 1 F clk $end
$var wire 3 g" bajo [2:0] $end
$var wire 3 h" alto [2:0] $end
$var wire 10 i" FIFO_data_out [9:0] $end
$var wire 10 j" FIFO_data_in [9:0] $end
$var reg 1 k" almost_empty_fifo $end
$var reg 1 l" almost_full_fifo $end
$var reg 3 m" cnt [2:0] $end
$var reg 1 p empty_fifo $end
$var reg 1 n" full_fifo $end
$var reg 1 o" rd_enable $end
$var reg 1 p" wr_enable $end
$scope module mem $end
$var wire 1 o" rdmem_enable $end
$var wire 1 p" wrmem_enable $end
$var wire 1 9 reset $end
$var wire 10 q" memo_data_in [9:0] $end
$var wire 1 F clk $end
$var reg 10 r" memo_data_out [9:0] $end
$var reg 3 s" rd_ptr [2:0] $end
$var reg 3 t" wr_ptr [2:0] $end
$var integer 32 u" i [31:0] $end
$upscope $end
$upscope $end
$scope module fifo4 $end
$var wire 10 v" FIFO_data_in [9:0] $end
$var wire 1 9 reset $end
$var wire 1 e push $end
$var wire 1 B pop $end
$var wire 1 F clk $end
$var wire 3 w" bajo [2:0] $end
$var wire 3 x" alto [2:0] $end
$var wire 10 y" FIFO_data_out [9:0] $end
$var reg 1 z" almost_empty_fifo $end
$var reg 1 z almost_full_fifo $end
$var reg 3 {" cnt [2:0] $end
$var reg 1 o empty_fifo $end
$var reg 1 |" full_fifo $end
$var reg 1 }" rd_enable $end
$var reg 1 ~" wr_enable $end
$scope module mem $end
$var wire 10 !# memo_data_in [9:0] $end
$var wire 1 }" rdmem_enable $end
$var wire 1 ~" wrmem_enable $end
$var wire 1 9 reset $end
$var wire 1 F clk $end
$var reg 10 "# memo_data_out [9:0] $end
$var reg 3 ## rd_ptr [2:0] $end
$var reg 3 $# wr_ptr [2:0] $end
$var integer 32 %# i [31:0] $end
$upscope $end
$upscope $end
$scope module fifo5 $end
$var wire 10 &# FIFO_data_in [9:0] $end
$var wire 1 9 reset $end
$var wire 1 d push $end
$var wire 1 A pop $end
$var wire 1 F clk $end
$var wire 3 '# bajo [2:0] $end
$var wire 3 (# alto [2:0] $end
$var wire 10 )# FIFO_data_out [9:0] $end
$var reg 1 *# almost_empty_fifo $end
$var reg 1 y almost_full_fifo $end
$var reg 3 +# cnt [2:0] $end
$var reg 1 n empty_fifo $end
$var reg 1 ,# full_fifo $end
$var reg 1 -# rd_enable $end
$var reg 1 .# wr_enable $end
$scope module mem $end
$var wire 10 /# memo_data_in [9:0] $end
$var wire 1 -# rdmem_enable $end
$var wire 1 .# wrmem_enable $end
$var wire 1 9 reset $end
$var wire 1 F clk $end
$var reg 10 0# memo_data_out [9:0] $end
$var reg 3 1# rd_ptr [2:0] $end
$var reg 3 2# wr_ptr [2:0] $end
$var integer 32 3# i [31:0] $end
$upscope $end
$upscope $end
$scope module fifo6 $end
$var wire 10 4# FIFO_data_in [9:0] $end
$var wire 1 9 reset $end
$var wire 1 c push $end
$var wire 1 @ pop $end
$var wire 1 F clk $end
$var wire 3 5# bajo [2:0] $end
$var wire 3 6# alto [2:0] $end
$var wire 10 7# FIFO_data_out [9:0] $end
$var reg 1 8# almost_empty_fifo $end
$var reg 1 x almost_full_fifo $end
$var reg 3 9# cnt [2:0] $end
$var reg 1 m empty_fifo $end
$var reg 1 :# full_fifo $end
$var reg 1 ;# rd_enable $end
$var reg 1 <# wr_enable $end
$scope module mem $end
$var wire 10 =# memo_data_in [9:0] $end
$var wire 1 ;# rdmem_enable $end
$var wire 1 <# wrmem_enable $end
$var wire 1 9 reset $end
$var wire 1 F clk $end
$var reg 10 ># memo_data_out [9:0] $end
$var reg 3 ?# rd_ptr [2:0] $end
$var reg 3 @# wr_ptr [2:0] $end
$var integer 32 A# i [31:0] $end
$upscope $end
$upscope $end
$scope module fifo7 $end
$var wire 10 B# FIFO_data_in [9:0] $end
$var wire 1 9 reset $end
$var wire 1 b push $end
$var wire 1 ? pop $end
$var wire 1 F clk $end
$var wire 3 C# bajo [2:0] $end
$var wire 3 D# alto [2:0] $end
$var wire 10 E# FIFO_data_out [9:0] $end
$var reg 1 F# almost_empty_fifo $end
$var reg 1 w almost_full_fifo $end
$var reg 3 G# cnt [2:0] $end
$var reg 1 l empty_fifo $end
$var reg 1 H# full_fifo $end
$var reg 1 I# rd_enable $end
$var reg 1 J# wr_enable $end
$scope module mem $end
$var wire 10 K# memo_data_in [9:0] $end
$var wire 1 I# rdmem_enable $end
$var wire 1 J# wrmem_enable $end
$var wire 1 9 reset $end
$var wire 1 F clk $end
$var reg 10 L# memo_data_out [9:0] $end
$var reg 3 M# rd_ptr [2:0] $end
$var reg 3 N# wr_ptr [2:0] $end
$var integer 32 O# i [31:0] $end
$upscope $end
$upscope $end
$scope module mux $end
$var wire 10 P# in_0 [9:0] $end
$var wire 10 Q# in_1 [9:0] $end
$var wire 10 R# in_2 [9:0] $end
$var wire 10 S# in_3 [9:0] $end
$var wire 2 T# select [1:0] $end
$var wire 1 9 reset $end
$var wire 1 F clk $end
$var reg 10 U# out_mux [9:0] $end
$upscope $end
$scope module roundRobin $end
$var wire 1 z almost_full_P0 $end
$var wire 1 y almost_full_P1 $end
$var wire 1 x almost_full_P2 $end
$var wire 1 w almost_full_P3 $end
$var wire 1 s empty_P0 $end
$var wire 1 r empty_P1 $end
$var wire 1 q empty_P2 $end
$var wire 1 p empty_P3 $end
$var wire 1 V# empty_P4 $end
$var wire 1 W# empty_P5 $end
$var wire 1 X# empty_P6 $end
$var wire 1 Y# empty_P7 $end
$var wire 1 9 reset $end
$var wire 1 F clk $end
$var reg 1 i pop_F0 $end
$var reg 1 h pop_F1 $end
$var reg 1 g pop_F2 $end
$var reg 1 f pop_F3 $end
$var reg 1 e push_F0 $end
$var reg 1 d push_F1 $end
$var reg 1 c push_F2 $end
$var reg 1 b push_F3 $end
$var reg 2 Z# select [1:0] $end
$upscope $end
$upscope $end
$scope module maquina $end
$var wire 8 [# empty_fifos [7:0] $end
$var wire 1 9 reset $end
$var wire 1 C init $end
$var wire 1 F clk $end
$var wire 3 \# bajo [2:0] $end
$var wire 3 ]# alto [2:0] $end
$var reg 8 ^# FIFO_empties [7:0] $end
$var reg 1 X active_out $end
$var reg 3 _# alto_out [2:0] $end
$var reg 3 `# bajo_out [2:0] $end
$var reg 4 a# estado_actual [3:0] $end
$var reg 1 b# idle_out $end
$var reg 1 c# next_active $end
$var reg 3 d# next_alto [2:0] $end
$var reg 3 e# next_bajo [2:0] $end
$var reg 1 f# next_idle $end
$var reg 4 g# sig_estado [3:0] $end
$upscope $end
$upscope $end
$scope module probador_modulo $end
$var wire 10 h# FIFO_data_out4 [9:0] $end
$var wire 10 i# FIFO_data_out5 [9:0] $end
$var wire 10 j# FIFO_data_out6 [9:0] $end
$var wire 10 k# FIFO_data_out7 [9:0] $end
$var wire 10 l# FIFO_data_out_synth4 [9:0] $end
$var wire 10 m# FIFO_data_out_synth5 [9:0] $end
$var wire 10 n# FIFO_data_out_synth6 [9:0] $end
$var wire 10 o# FIFO_data_out_synth7 [9:0] $end
$var wire 5 p# contador_out [4:0] $end
$var wire 1 8 valid_contador $end
$var reg 10 q# FIFO_data_in0 [9:0] $end
$var reg 10 r# FIFO_data_in1 [9:0] $end
$var reg 10 s# FIFO_data_in2 [9:0] $end
$var reg 10 t# FIFO_data_in3 [9:0] $end
$var reg 1 u# IDLE $end
$var reg 3 v# alto [2:0] $end
$var reg 3 w# bajo [2:0] $end
$var reg 1 F clk $end
$var reg 2 x# idx [1:0] $end
$var reg 1 C init $end
$var reg 1 B pop4 $end
$var reg 1 A pop5 $end
$var reg 1 @ pop6 $end
$var reg 1 ? pop7 $end
$var reg 1 > push0 $end
$var reg 1 = push1 $end
$var reg 1 < push2 $end
$var reg 1 ; push3 $end
$var reg 1 : req $end
$var reg 1 9 reset $end
$upscope $end
$upscope $end
$enddefinitions $end
#0
$dumpvars
bx x#
b0 w#
b100 v#
xu#
b0 t#
b0 s#
b0 r#
b0 q#
b0 p#
bz o#
bz n#
bz m#
bz l#
b0 k#
b0 j#
b0 i#
b0 h#
b0 g#
xf#
bx e#
bx d#
xc#
0b#
b0 a#
b0 `#
b0 _#
b0 ^#
b100 ]#
b0 \#
b0 [#
b0 Z#
zY#
zX#
zW#
zV#
b0 U#
b0 T#
b0 S#
b0 R#
b0 Q#
b0 P#
b1000 O#
b0 N#
b0 M#
b0 L#
b0 K#
0J#
0I#
0H#
b0 G#
0F#
b0 E#
b0 D#
b0 C#
b0 B#
b1000 A#
b0 @#
b0 ?#
b0 >#
b0 =#
0<#
0;#
0:#
b0 9#
08#
b0 7#
b0 6#
b0 5#
b0 4#
b1000 3#
b0 2#
b0 1#
b0 0#
b0 /#
0.#
0-#
0,#
b0 +#
0*#
b0 )#
b0 (#
b0 '#
b0 &#
b1000 %#
b0 $#
b0 ##
b0 "#
b0 !#
0~"
0}"
0|"
b0 {"
0z"
b0 y"
b0 x"
b0 w"
b0 v"
b1000 u"
b0 t"
b0 s"
b0 r"
b0 q"
0p"
0o"
0n"
b0 m"
0l"
0k"
b0 j"
b0 i"
b0 h"
b0 g"
b1000 f"
b0 e"
b0 d"
b0 c"
b0 b"
0a"
0`"
0_"
b0 ^"
0]"
0\"
b0 ["
b0 Z"
b0 Y"
b0 X"
b1000 W"
b0 V"
b0 U"
b0 T"
b0 S"
0R"
0Q"
0P"
b0 O"
0N"
0M"
b0 L"
b0 K"
b0 J"
b0 I"
b1000 H"
b0 G"
b0 F"
b0 E"
b0 D"
0C"
0B"
0A"
b0 @"
0?"
0>"
b0 ="
b0 <"
b0 ;"
b0 :"
b0 9"
b0 8"
b0 7"
b0 6"
b0 5"
b0 4"
b0 3"
b0 2"
b0 1"
b0 0"
b0 /"
bx ."
b0 -"
b0 ,"
b0 +"
b0 *"
b0 )"
b0 ("
b0 '"
b0 &"
b0 %"
b0 $"
b0 #"
b0 ""
b0 !"
b0 ~
b0 }
b0 |
b0 {
0z
0y
0x
0w
b0 v
b0 u
b0 t
0s
0r
0q
0p
0o
0n
0m
0l
bx k
b0 j
0i
0h
0g
0f
1e
1d
1c
1b
b0 a
b0 `
b0 _
b0 ^
b0 ]
b0 \
b0 [
b0 Z
b0 Y
0X
b100 W
b0 V
b0 U
b0 T
b0 S
b0 R
bx Q
b0 P
b0 O
b0 N
b0 M
b0 L
b0 K
b0 J
b0 I
b100 H
b0 G
1F
b0 E
bx D
0C
xB
xA
x@
x?
x>
x=
x<
x;
x:
19
08
x7
bz 6
bz 5
bz 4
bz 3
z2
z1
x0
z/
z.
x-
z,
z+
x*
z)
z(
z'
z&
x%
z$
z#
z"
z!
$end
#1
0F
#2
b1 g#
b11111111 ^#
0b
0c
0d
0e
b11111111 R
b11111111 -"
b11111111 [#
1C
09
1w
1F#
1l
1x
18#
1m
1y
1*#
1n
1z
1z"
1o
1l"
1k"
1p
1]"
1\"
1q
1N"
1M"
1r
1?"
1>"
1s
b1000 O#
b1000 A#
b1000 3#
b1000 %#
b1000 u"
b1000 f"
b1000 W"
b1000 H"
1F
#3
0F
#4
b1 e#
b10 d#
b1 a#
b10 H
b10 W
b10 ]#
b10 v#
b1 G
b1 U
b1 \#
b1 w#
1F
#5
0F
#6
b11 e#
b101 d#
b101 H
b101 W
b101 ]#
b101 v#
b11 G
b11 U
b11 \#
b11 w#
1F
#7
0F
#8
b10 g#
0;
0<
0=
1>
0C
1F
#9
0F
#10
b1 P
b1 `
b1 ,"
b1 ="
b1 D"
b1 q#
1C"
b11 T
b11 u
b11 :"
b11 I"
b11 X"
b11 g"
b11 w"
b11 '#
b11 5#
b11 C#
b11 `#
b101 V
b101 v
b101 ;"
b101 J"
b101 Y"
b101 h"
b101 x"
b101 (#
b101 6#
b101 D#
b101 _#
1b#
b10 a#
1F
#11
0F
#12
1b
1c
1d
1e
b1 G"
b1 @"
0?"
0>"
0N"
0M"
0]"
0\"
0l"
0k"
0z
0z"
0y
0*#
0x
08#
0w
0F#
1F
#13
0F
#14
b11 g#
b11111110 ^#
b11111110 R
b11111110 -"
b11111110 [#
1J#
1<#
1.#
1~"
0s
b10 @"
b10 G"
1F
#15
0F
#16
b11 G"
b11 @"
b1 $#
b1 {"
b1 2#
b1 +#
b1 @#
b1 9#
b1 N#
b1 G#
1i
0b#
b11 a#
1F
#17
0F
#18
b1110 ^#
b1110 R
b1110 -"
b1110 [#
0l
b10 G#
b10 N#
0m
b10 9#
b10 @#
0n
b10 +#
b10 2#
0o
b10 {"
b10 $#
1>"
b100 @"
1B"
b100 G"
1F
#19
0F
#20
b1 ("
b1 6"
b1 v"
b1 !#
b1 j
b1 5"
b1 U#
b101 G"
b1 F"
b1 $"
b1 <"
b1 E"
b1 P#
0>"
b11 $#
b11 {"
b11 2#
b11 +#
b11 @#
b11 9#
b11 N#
b11 G#
1F
#21
0F
#22
0>
1F#
b100 G#
b100 N#
18#
b100 9#
b100 @#
1*#
b100 +#
b100 2#
1z"
b100 {"
b100 $#
b10 F"
b1 $"
b1 <"
b1 E"
b1 P#
b110 G"
1F
#23
0F
#24
b111 G"
b11 F"
b1 $"
b1 <"
b1 E"
b1 P#
0C"
b101 $#
b101 {"
0z"
b101 2#
b101 +#
0*#
b101 @#
b101 9#
08#
b101 N#
b101 G#
0F#
1F
#25
0F
#26
0b
0c
0d
0e
1w
b110 G#
b110 N#
1x
b110 9#
b110 @#
1y
b110 +#
b110 2#
1z
b110 {"
b110 $#
b11 @"
b100 F"
b1 $"
b1 <"
b1 E"
b1 P#
1F
#27
0F
#28
1b
1c
1d
1e
b101 F"
b1 $"
b1 <"
b1 E"
b1 P#
b10 @"
1>"
b111 $#
0~"
b111 {"
0z
b111 2#
0.#
b111 +#
0y
b111 @#
0<#
b111 9#
0x
b111 N#
0J#
b111 G#
0w
0i
1>
1B
1F
#29
0F
#30
b100000001 P
b100000001 `
b100000001 ,"
b100000001 ="
b100000001 D"
b100000001 q#
1i
1H#
1J#
1:#
1<#
1,#
1.#
1|"
1}"
1~"
0>"
b1 @"
0B"
1C"
b110 F"
b1 $"
b1 <"
b1 E"
b1 P#
18
b1 /"
1F
#31
0F
#32
b0 ("
b0 6"
b0 v"
b0 !#
b0 j
b0 5"
b0 U#
b10 /"
b0 G"
b0 $"
b0 <"
b0 E"
b0 P#
1B"
b10 @"
b0 $#
b1 ##
b0 2#
b111 +#
b0 @#
b111 9#
b0 N#
b111 G#
1F
#33
0F
#34
b1 ("
b1 6"
b1 v"
b1 !#
b1 j
b1 5"
b1 U#
b111 G#
b1 N#
b111 9#
b1 @#
b111 +#
b1 2#
b10 ##
b1 $#
b111 F"
b1 $"
b1 <"
b1 E"
b1 P#
b1 G"
b11 /"
1F
#35
0F
#36
b100000001 '"
b100000001 7"
b100000001 &#
b100000001 /#
b0 ("
b0 6"
b0 v"
b0 !#
b1 4"
b100000001 j
b100000001 5"
b100000001 U#
b100 /"
b10 G"
b0 F"
b100000001 $"
b100000001 <"
b100000001 E"
b100000001 P#
b10 $#
b11 ##
b10 2#
b111 +#
b10 @#
b111 9#
b10 N#
b111 G#
1F
#37
0F
#38
b111 G#
b11 N#
b111 9#
b11 @#
b111 +#
b11 2#
b100 ##
b1 L
b1 \
b1 ~
b1 y"
b1 "#
b1 h#
b11 $#
b1 F"
b100000001 $"
b100000001 <"
b100000001 E"
b100000001 P#
b11 G"
b101 /"
1F
#39
0F
#40
b110 /"
b100 G"
b10 F"
b100000001 $"
b100000001 <"
b100000001 E"
b100000001 P#
b100 $#
b101 ##
b1 L
b1 \
b1 ~
b1 y"
b1 "#
b1 h#
b100 2#
b111 +#
b100 @#
b111 9#
b100 N#
b111 G#
0>
1F
#41
0F
#42
b111 G#
b101 N#
b111 9#
b101 @#
b111 +#
b101 2#
b110 ##
b1 L
b1 \
b1 ~
b1 y"
b1 "#
b1 h#
b101 $#
0C"
b11 F"
b100000001 $"
b100000001 <"
b100000001 E"
b100000001 P#
b101 G"
b111 /"
1F
#43
0F
#44
b1000 /"
b100 F"
b100000001 $"
b100000001 <"
b100000001 E"
b100000001 P#
b1 @"
b110 $#
b111 ##
b1 L
b1 \
b1 ~
b1 y"
b1 "#
b1 h#
b110 2#
b111 +#
b110 @#
b111 9#
b110 N#
b111 G#
1F
#45
0F
#46
b111 G#
b111 N#
b111 9#
b111 @#
b111 +#
b111 2#
b0 ##
b1 L
b1 \
b1 ~
b1 y"
b1 "#
b1 h#
b111 $#
b0 @"
b101 F"
b100000001 $"
b100000001 <"
b100000001 E"
b100000001 P#
b1001 /"
1F
#47
0F
#48
b0 '"
b0 7"
b0 &#
b0 /#
b0 4"
b0 j
b0 5"
b0 U#
b1111 ^#
b1111 R
b1111 -"
b1111 [#
b1010 /"
b110 F"
b0 $"
b0 <"
b0 E"
b0 P#
1s
b0 $#
b1 ##
b0 L
b0 \
b0 ~
b0 y"
b0 "#
b0 h#
b0 2#
b111 +#
b0 @#
b111 9#
b0 N#
b111 G#
1F
#49
0F
#50
1A
0B
b111 G#
b1 N#
b111 9#
b1 @#
b111 +#
b1 2#
b10 ##
b1 L
b1 \
b1 ~
b1 y"
b1 "#
b1 h#
b1 $#
b111 F"
b1011 /"
1F
#51
0F
#52
b1 0"
b0 F"
b10 $#
b11 ##
b0 L
b0 \
b0 ~
b0 y"
b0 "#
b0 h#
0}"
b10 2#
1-#
b111 +#
b10 @#
b111 9#
b10 N#
b111 G#
1F
#53
0F
#54
b111 G#
b11 N#
b111 9#
b11 @#
b1 1#
b11 2#
b111 {"
b11 $#
b1 F"
b10 0"
1F
#55
0F
#56
b11 0"
b10 F"
b100 $#
b111 {"
b100 2#
b10 1#
b100 @#
b111 9#
b100 N#
b111 G#
1F
#57
0F
#58
b111 G#
b101 N#
b111 9#
b101 @#
b11 1#
b101 2#
b111 {"
b101 $#
b11 F"
b100 0"
1F
#59
0F
#60
b101 0"
b100 F"
b110 $#
b111 {"
b110 2#
b100 1#
b110 @#
b111 9#
b110 N#
b111 G#
1F
#61
0F
#62
1>
b111 G#
b111 N#
b111 9#
b111 @#
b101 1#
b111 2#
b111 {"
b111 $#
b101 F"
b110 0"
1F
#63
0F
#64
b111 0"
b110 F"
1C"
b0 $#
b111 {"
b0 2#
b110 1#
b0 @#
b111 9#
b0 N#
b111 G#
b1000000001 P
b1000000001 `
b1000000001 ,"
b1000000001 ="
b1000000001 D"
b1000000001 q#
1F
#65
0F
#66
b111 G#
b1 N#
b111 9#
b1 @#
b111 1#
b1 2#
b111 {"
b1 $#
b111 F"
b110 G"
b1000 0"
1F
#67
0F
#68
b1001 0"
b111 G"
b0 F"
b10 $#
b111 {"
b10 2#
b0 1#
b10 @#
b111 9#
b10 N#
b111 G#
1F
#69
0F
#70
b111 G#
b11 N#
b111 9#
b11 @#
b1 1#
b11 2#
b111 {"
b11 $#
b1 F"
b0 G"
b1010 0"
1F
#71
0F
#72
b1011 0"
b1 G"
b10 F"
b100 $#
b111 {"
b100 2#
b10 1#
b100 @#
b111 9#
b100 N#
b111 G#
1F
#73
0F
#74
b111 G#
b101 N#
b111 9#
b101 @#
b11 1#
b101 2#
b111 {"
b101 $#
b11 F"
b10 G"
b1100 0"
1F
#75
0F
#76
b1101 0"
b11 G"
b100 F"
b110 $#
b111 {"
b110 2#
b100 1#
b110 @#
b111 9#
b110 N#
b111 G#
1F
#77
0F
#78
b111 G#
b111 N#
b111 9#
b111 @#
b101 1#
b111 2#
b111 {"
b111 $#
b101 F"
b100 G"
b1110 0"
1F
#79
0F
#80
b1000000001 &"
b1000000001 8"
b1000000001 4#
b1000000001 =#
b0 ("
b0 6"
b0 v"
b0 !#
b10 4"
b1000000001 j
b1000000001 5"
b1000000001 U#
b1111 0"
b101 G"
b110 F"
b1000000001 $"
b1000000001 <"
b1000000001 E"
b1000000001 P#
b0 $#
b111 {"
b0 2#
b110 1#
b0 @#
b111 9#
b0 N#
b111 G#
1F
#81
0F
#82
b111 G#
b1 N#
b111 9#
b1 @#
b111 1#
b1 2#
b111 {"
b1 $#
b111 F"
b1000000001 $"
b1000000001 <"
b1000000001 E"
b1000000001 P#
b110 G"
b10000 0"
1F
#83
0F
#84
b10001 0"
b111 G"
b0 F"
b1000000001 $"
b1000000001 <"
b1000000001 E"
b1000000001 P#
b10 $#
b111 {"
b10 2#
b0 1#
b10 @#
b111 9#
b10 N#
b111 G#
1F
#85
0F
